.............
----------------------------------------------------------------------
Ran 13 tests in 0.019s
OK
Name             Stmts   Miss Branch BrPart  Cover   Missing
------------------------------------------------------------
Collatz.py          36      1     14      1    96%   43, 42->43
TestCollatz.py      60      0      0      0   100%
------------------------------------------------------------
TOTAL               96      1     14      1    98%