1 10 20
100 200 125
201 210 89
900 1000 174
2050 6495 262
400000 999999 525
1 1500 182
234 5000 238
34659 124599 354
124599 34659 354
6450 70354 340
256 194 128
2983 6093 238
999000 999999 396
67384 85243 351
832049 573842 509
1 9000 262
23004 534093 470
19302 82394 351
8001 10000 260
25903 65093 340
602919 809342 509
1 999999 525
342594 6029 443
92043 50293 351
2839 7000 262
800000 999999 525
52039 39583 314
9 5000 238
543009 285394 470
19235 60394 340
77665 500986 449
285439 839485 525
1 1 1
800 800 29
999999 999999 259
43845 43846 45
29384 7263 308
128 9000 262
2834 97543 351
6039 78263 351
9385 98345 351
748 29835 308
9000 70000 340
989000 999999 440
45943 84574 351
45943 94864 351
675847 847475 525
3001 80000 351
48543 68894 340
895 94854 351
8001 8001 53
5000 70001 340
998000 999999 396
1 1500 182
2934 930832 525
9998 9997 180
1000 9001 262
1001 9000 262
45 3040 217
349584 609453 470
450394 300000 449
458 334 134
9384 1 262
3945 84695 351
929 838 179
45 44 17
89234 89232 72
89234 89233 72
4 123000 354
96458 83859 333
248954 835985 509
458956 238459 449
546594 724385 509
34574 950459 525
2343 589548 470
45895 48938 314
84955 385432 443
49558 893845 525
849584 49054 525
394 394 28
458945 348959 449
932734 950453 507
238492 84 443
954586 23 525
98 34 119
345 3450 217
834594 35489 509
59685 8 340
485658 8457 449
30045 89 308
849354 9234 525
394533 92834 443
29345 98930 351
349484 93000 443
7233 72331 340
800 80001 351
773845 6345 509
93459 83845 333
999 9999 262
883 88883 351
4569 74776 340
9003 90004 351
1001 800002 509
84358 12033 351
348594 65499 443
98454 6000 351
60001 700000 509
83459 1 351
93948 2000 351
